{
  "project_info": {
    "project_number": "188536393314",
    "firebase_url": "https://thermo-b9c85.firebaseio.com",
    "project_id": "thermo-b9c85",
    "storage_bucket": "thermo-b9c85.appspot.com"
  },
  "client": [
    {
      "client_info": {
        "mobilesdk_app_id": "1:188536393314:android:212a6402899398e125cb3b",
        "android_client_info": {
          "package_name": "com.bortamas.thermo"
        }
      },
      "oauth_client": [
        {
          "client_id": "188536393314-irqjt72drjeip64gedesuqbrml3qrns8.apps.googleusercontent.com",
          "client_type": 3
        }
      ],
      "api_key": [
        {
          "current_key": "AIzaSyA4IBJd6_gGu-3e9VGWbjgdNHsduN24SC0"
        }
      ],
      "services": {
        "appinvite_service": {
          "other_platform_oauth_client": [
            {
              "client_id": "188536393314-irqjt72drjeip64gedesuqbrml3qrns8.apps.googleusercontent.com",
              "client_type": 3
            }
          ]
        }
      }
    }
  ],
  "configuration_version": "1"
}